{
"storeHouse": [
{"sourceName":"❤️主仓库🥝金鹰影视多仓库","sourceUrl":"http://530.my3v.work/99668.json"},
{"sourceName":"⓪🏆TVBOX官方仓库","sourceUrl":"https://gitlab.com/dokiss/tvbox/-/raw/main/TVBOX官仓.json"},


{"sourceName":"①🥣砂锅影视多仓库","sourceUrl":"http://152.32.170.60/ddx/TVBox/raw/branch/master/d.json"},

{"sourceName":"②🎎蚂蚁影视多仓库","sourceUrl":"https://pan.miaogongzi.net/f/pNFE/%E8%9A%82%E8%9A%81%E7%AA%9D1%E5%B1%80.txt"},
{"sourceName":"③🎁宝盒影视多仓库","sourceUrl":"https://mirror.ghproxy.com/https://raw.githubusercontent.com/txtvv/txtv/main/ku/宝盒多仓.txt"},
{"sourceName":"④🍚饭太硬多仓仓库","sourceUrl":"https://d.kstore.space/download/2904/236.txt"},

{"sourceName":"⑤🏮欧歌影视多仓库","sourceUrl":" http://tv.nxog.top/nxog/ou1.php?b=欧歌"},
{"sourceName":"⑥🐬摸鱼影视多仓库","sourceUrl":"http://小鱼干.摸鱼儿.top"},


{"sourceName":"⑦🌟星星影视多仓库","sourceUrl":"http://154.3.2.66:8889/down/YgOQS9WjkF6R.txt"},
{"sourceName":"⑧🌴青木影视多仓库","sourceUrl":"http://530.my3v.work/qm.json"},


{"sourceName":"⑨🕵 宋歌影视多仓库","sourceUrl":"http://tv.nxog.top/nxog/ou1.php?url=http://tv.nxog.top&b=装B小宋哥直播1http://v.nxog.top/jar/live.jpg"},
{"sourceName":"⑩🛀🏻 小白影视多仓库","sourceUrl":"http://39.101.135.137:8686/"},
{"sourceName":"11🐚无邪影视多仓库","sourceUrl":"https://www.gitlink.org.cn/api/wxrj/wx/raw/jh.txt?ref=master"},
{"sourceName":"12🌺多多影视主仓库","sourceUrl":"https://www.gitlink.org.cn/api/leevi0321/apps/raw/duo.json?ref=main"},

{"sourceName":"13🚥云星影视多仓库","sourceUrl":"http://itvbox.cc/可视TV/云星日记/仓库/api.json"},
{"sourceName":"14🎇恒星影视多仓库","sourceUrl":"http://530.my3v.work/hxck.json"},
{"sourceName":"15💖心动影视多仓库","sourceUrl":"http://530.my3v.work/xdck.json"},
{"sourceName":"167⃣七星影视多仓库","sourceUrl":"http://tvkj.top/DC.txt"},
{"sourceName":"17⛵️壹梦影视多仓库","sourceUrl":"http://530.my3v.work/3.json"},
{"sourceName":"18💠水大侠影视仓库","sourceUrl":"https://gitee.com/GK_6_0/json/raw/master/json.txt"},
{"sourceName":"19📺追剧吧影视多仓","sourceUrl":"https://jihulab.com/jw2/jyf/-/raw/main/jihu.json"},
{"sourceName":"20🛰蓝色大佬影视库","sourceUrl":"https://atomgit.com/xghvrf/Xvbjffc/raw/master/Xboxb.json"},

{"sourceName":"21🥥拾光源口多仓库","sourceUrl":"https://gh.con.sh/https://raw.githubusercontent.com/xmbjm/xmbjm/main/xmbjmdc.json"},
{"sourceName":"22🏵日后魔改多仓库","sourceUrl":"http://rihou.vip:6"},
{"sourceName":"23🎭开心视频多仓库","sourceUrl":"http://rihou.vip:55"},
{"sourceName":"24❤️爱TV吧多仓库","sourceUrl":"https://mirror.ghproxy.com/https://raw.githubusercontent.com/txtvv/txtv/main/daku.txt"},
{"sourceName":"25🦠有毒影视科技仓","sourceUrl":"https://tv.youdu.fan:666/"},
{"sourceName":"26🥐阿松万事屋多仓","sourceUrl":"https://xs.magiclee.cn/jk/阿松万事屋多仓.txt "},
{"sourceName":"27🛰殇云分享多仓库","sourceUrl":"https://gitee.com/shangyunvip/cjdc/raw/master/json/1.json"},

{"sourceName":"28💐多多多影视仓库","sourceUrl":"https://mirror.ghproxy.com/https://raw.githubusercontent.com/txtvv/txtv/main/ku/多多多仓.txt"},

{"sourceName":"29🐳潇洒个人多仓库","sourceUrl":"https://github.moeyy.xyz/https://raw.githubusercontent.com/PizazzGY/TVBox_warehouse/main/warehouse.txt"},
{"sourceName":"30🌀奇奇影视多仓库","sourceUrl":"https://ghproxy.net/https://raw.githubusercontent.com/yyfxz/qqtv/main/qq.json"},
{"sourceName":"31🔮鼓楼影视多仓库","sourceUrl":"https://raw.gitmirror.com/ZTHA000/tvbox/main/flck.json"},
{"sourceName":"32☕元佬影视多仓库","sourceUrl":"https://mirror.ghproxy.com/https://raw.githubusercontent.com/txtvv/txtv/main/ku/元老库.txt"},
{"sourceName":"33🌸荷花影视多仓库","sourceUrl":"https://jihulab.com/z-blog/xh2/-/raw/main/t3.json"},
{"sourceName":"34♻️优质聚合多线路","sourceUrl":"https://mirror.ghproxy.com/raw.githubusercontent.com/sf467/Tvbox1/main/优质.json"},

{"sourceName":"35🍷蚂蚁影视二仓库","sourceUrl":"https://pan.shangui.cc/f/mBYNHb/%E8%9A%82%E8%9A%81%E7%AA%9D2%E5%B1%80.txt"},
{"sourceName":"36🍷蚂蚁影视三仓库","sourceUrl":"https://pan.shangui.cc/f/X2yqFd/%E8%9A%82%E8%9A%81%E7%AA%9D3%E5%B1%80.txt"},
{"sourceName":"37🍷蚂蚁影视四仓库","sourceUrl":"https://pan.shangui.cc/f/vYYnHk/%E8%9A%82%E8%9A%81%E7%AA%9D4.txt"},
{"sourceName":"38💜渌陇天下多仓库","sourceUrl":"https://gitlab.com/lthyh/ggc/-/raw/main/0316.json?ref_type=heads"},
{"sourceName":"39❤️渌陇本地多仓库","sourceUrl":"https://gitlab.com/lthyh/llggc/-/raw/main/0316.json?ref_type=heads"}


]}